<?xml version="1.0" encoding="UTF-8" standalone="no"?>
<!-- Created with Inkscape (http://www.inkscape.org/) -->

<svg
   xmlns:dc="http://purl.org/dc/elements/1.1/"
   xmlns:cc="http://creativecommons.org/ns#"
   xmlns:rdf="http://www.w3.org/1999/02/22-rdf-syntax-ns#"
   xmlns:svg="http://www.w3.org/2000/svg"
   xmlns="http://www.w3.org/2000/svg"
   xmlns:sodipodi="http://sodipodi.sourceforge.net/DTD/sodipodi-0.dtd"
   xmlns:inkscape="http://www.inkscape.org/namespaces/inkscape"
   id="svg8"
   height="23"
   width="24"
   version="1.1"
   viewBox="0 0 24 23"
   sodipodi:docname="nwn:AT.svg"
   inkscape:version="0.92.1 r15371">
  <defs
     id="defs27" />
  <sodipodi:namedview
     pagecolor="#ffffff"
     bordercolor="#666666"
     borderopacity="1"
     objecttolerance="10"
     gridtolerance="10"
     guidetolerance="10"
     inkscape:pageopacity="0"
     inkscape:pageshadow="2"
     inkscape:window-width="1916"
     inkscape:window-height="1162"
     id="namedview25"
     showgrid="false"
     inkscape:zoom="42.478261"
     inkscape:cx="12"
     inkscape:cy="11.5"
     inkscape:window-x="2"
     inkscape:window-y="16"
     inkscape:window-maximized="0"
     inkscape:current-layer="svg8" />
  <metadata
     id="metadata5">
    <rdf:RDF>
      <cc:Work
         rdf:about="">
        <dc:format>image/svg+xml</dc:format>
        <dc:type
           rdf:resource="http://purl.org/dc/dcmitype/StillImage" />
        <dc:title></dc:title>
      </cc:Work>
    </rdf:RDF>
  </metadata>
  <path
     style="fill:#008000;stroke:#ffffff;stroke-width:3.32306099"
     inkscape:connector-curvature="0"
     d="M 12.018043,1.9995262 C 18.767383,6.4179452 20.74004,9.4801184 22.177701,18.08701 15.054076,22.507243 8.2393261,22.499117 1.7694182,18.08701 2.7118602,10.196074 5.7627313,5.9740396 12.018043,1.9995262 Z"
     id="path4487" />
  <path
     inkscape:connector-curvature="0"
     d="M 11.510049,6.5961877 7.0328581,14.821498 H 8.2725746 L 9.5333467,12.41598 H 11.517946 V 18.927577 H 12.518142 V 12.41598 H 14.534322 L 15.7872,14.821498 H 17.003229 L 12.597105,6.5961877 Z M 12.033835,7.4358853 C 12.038983,7.4551987 14.034967,11.438178 14.071077,11.510254 H 10.004494 C 10.040401,11.43814 12.02354,7.4551987 12.033835,7.4358853 Z"
     style="font-variant-ligatures:normal;font-variant-caps:normal;font-variant-numeric:normal;font-feature-settings:normal;fill:#ffffff;stroke-width:3.77952766"
     id="path4500" />
  <path
     style="fill:none;stroke-width:3.77952766"
     inkscape:connector-curvature="0"
     d="M 3.4700249,13.972427 C 4.52473,9.5328428 8.4076519,4.3176995 11.870876,3.4712365 16.111524,4.6046412 19.756637,10.293246 20.541534,13.800761"
     id="path4506" />
  <g
     style="font-variant-ligatures:normal;font-variant-caps:normal;font-variant-numeric:normal;font-feature-settings:normal;stroke-width:0.26458335"
     aria-label="APPALACHIAN TRAIL"
     id="text4510"
     transform="matrix(3.7795276,0,0,3.7795276,1.5294429e-7,-1099.5197)">
    <path
       inkscape:connector-curvature="0"
       d="M 1.1661952,293.85893 1.1801857,293.86564 1.1242798,293.98206 1.1102893,293.97534 1.1224313,293.93179 0.84459496,293.6499 0.86868139,293.59975 1.264668,293.63562 1.2933462,293.59416 1.3073366,293.60088 1.2354577,293.75055 1.2214672,293.74383 1.2371587,293.6929 1.1181416,293.67895 1.0512067,293.81832 1.1362493,293.90302 Z M 0.88856494,293.65575 1.0312525,293.79899 1.0904544,293.67572 Z"
       style="font-variant-ligatures:normal;font-variant-caps:normal;font-variant-numeric:normal;font-feature-settings:normal"
       id="path4488" />
    <path
       inkscape:connector-curvature="0"
       d="M 1.1979306,293.24128 Q 1.177648,293.22955 1.1603056,293.22562 1.1431096,293.22143 1.1278675,293.22615 1.1125183,293.23047 1.0985764,293.24406 1.0846345,293.25764 1.0708601,293.28148 L 1.0564995,293.30632 1.2174921,293.39937 1.2327319,293.37301 Q 1.2465063,293.34917 1.2501604,293.32998 1.2537075,293.31038 1.2486276,293.29459 1.2436942,293.27855 1.2305734,293.26556 1.2174525,293.25256 1.1979306,293.24128 Z M 1.2403099,293.41256 1.353385,293.47792 1.3914427,293.42787 1.4048798,293.43564 1.3220867,293.57888 1.3086495,293.57112 1.3251035,293.52685 1.0254291,293.35364 0.99363298,293.39344 0.9801958,293.38567 1.0543433,293.25739 Q 1.075005,293.22164 1.0966389,293.20235 1.1181658,293.18266 1.1402091,293.17612 1.1619989,293.16944 1.18377,293.1739 1.2055412,293.17837 1.2265843,293.19053 1.2473739,293.20255 1.2631254,293.21977 1.2790235,293.23674 1.2855223,293.25943 1.2921676,293.28188 1.2874133,293.31058 1.282659,293.33929 1.2624369,293.37428 Z"
       style="font-variant-ligatures:normal;font-variant-caps:normal;font-variant-numeric:normal;font-feature-settings:normal"
       id="path4490" />
    <path
       inkscape:connector-curvature="0"
       d="M 1.3871025,292.9463 Q 1.367549,292.9334 1.3504697,292.92844 1.3335516,292.92324 1.318057,292.92705 1.3024792,292.93046 1.2877579,292.9432 1.2730365,292.95594 1.2578764,292.97891 L 1.2420711,293.00287 1.3972771,293.10528 1.41405,293.07986 Q 1.4292102,293.05688 1.4339935,293.03794 1.4386937,293.01858 1.4345567,293.00252 1.4305809,292.98622 1.4182518,292.97247 1.4059227,292.95872 1.3871025,292.9463 Z M 1.4192748,293.11979 1.5282856,293.19172 1.5692372,293.14402 1.5821914,293.15256 1.4910691,293.29066 1.478115,293.28211 1.4971589,293.2389 1.2082558,293.04826 1.1741611,293.08611 1.1612069,293.07756 1.2428137,292.95389 Q 1.2655539,292.91942 1.288291,292.90145 1.310945,292.88307 1.3333365,292.87784 1.3554836,292.87246 1.3769524,292.87821 1.3984212,292.88395 1.418708,292.89734 1.4387504,292.91056 1.4534555,292.92869 1.4683219,292.94656 1.4734666,292.96961 1.4787726,292.9924 1.4723284,293.02078 1.4658842,293.04916 1.4436278,293.08288 Z"
       style="font-variant-ligatures:normal;font-variant-caps:normal;font-variant-numeric:normal;font-feature-settings:normal"
       id="path4492" />
    <path
       inkscape:connector-curvature="0"
       d="M 1.7006015,292.95709 1.7129152,292.96653 1.6343082,293.06899 1.6219945,293.05955 1.642815,293.01942 1.4287449,292.68651 1.4626119,292.64237 1.8428084,292.75874 1.8793834,292.72405 1.8916972,292.7335 1.790631,292.86524 1.7783173,292.85579 1.8041288,292.80916 1.6905085,292.77107 1.596394,292.89375 1.662244,292.99409 Z M 1.4705787,292.70126 1.5808314,292.87073 1.6640728,292.76223 Z"
       style="font-variant-ligatures:normal;font-variant-caps:normal;font-variant-numeric:normal;font-feature-settings:normal"
       id="path4494" />
    <path
       inkscape:connector-curvature="0"
       d="M 1.7428425,292.3385 1.7074611,292.3883 1.9611584,292.62118 2.0134359,292.56422 Q 2.0381885,292.53726 2.0523221,292.51883 2.0664556,292.5004 2.0711019,292.49274 L 2.0231908,292.42412 2.0360621,292.41009 2.1155534,292.49022 1.9074335,292.71695 1.8959999,292.70645 1.9242348,292.664 1.6692431,292.42994 1.6295746,292.4619 1.6181409,292.4514 1.7314089,292.328 Z"
       style="font-variant-ligatures:normal;font-variant-caps:normal;font-variant-numeric:normal;font-feature-settings:normal"
       id="path4496" />
    <path
       inkscape:connector-curvature="0"
       d="M 2.2329074,292.35644 2.2431492,292.3681 2.1461204,292.45332 2.1358786,292.44166 2.1641041,292.40634 2.0188492,292.03817 2.060653,292.00145 2.4109663,292.18953 2.4535873,292.16262 2.4638291,292.17428 2.3390778,292.28385 2.328836,292.27218 2.363222,292.23146 2.2591747,292.17201 2.1430042,292.27405 2.1880862,292.38528 Z M 2.057017,292.06077 2.132213,292.24845 2.2349623,292.1582 Z"
       style="font-variant-ligatures:normal;font-variant-caps:normal;font-variant-numeric:normal;font-feature-settings:normal"
       id="path4498" />
    <path
       inkscape:connector-curvature="0"
       d="M 2.6609104,292.05208 Q 2.6204831,292.078 2.5814126,292.08706 2.5425885,292.09595 2.5068975,292.08857 2.471453,292.08103 2.4403552,292.05749 2.4090994,292.0337 2.3841248,291.99475 2.3556728,291.95038 2.3461473,291.91057 2.3368683,291.8706 2.3449673,291.8355 2.3531546,291.79998 2.3783153,291.76924 2.403476,291.73849 2.4443963,291.71225 2.4614053,291.70135 2.4772326,291.69294 2.4929019,291.68428 2.5075663,291.67731 2.5224772,291.67019 2.5362252,291.6645 2.5499731,291.65882 2.5631397,291.65385 L 2.6109324,291.72513 2.5946628,291.73556 2.559764,291.69741 Q 2.5357115,291.69788 2.5091508,291.70691 2.4826784,291.71554 2.4590137,291.73071 2.4301723,291.7492 2.4125517,291.77163 2.3951777,291.79391 2.3911866,291.82186 2.3870374,291.84957 2.3974661,291.88428 2.4079832,291.91858 2.4353288,291.96123 2.459355,291.99869 2.4853513,292.02133 2.5111896,292.04373 2.5383281,292.05241 2.5653085,292.06086 2.5930962,292.05591 2.6211304,292.0508 2.6492323,292.03278 2.6645157,292.02298 2.6770556,292.01216 2.6898421,292.00118 2.6994615,291.99014 2.7093274,291.97894 2.7158495,291.9685 2.7224601,291.95765 2.7257079,291.94861 L 2.7032153,291.89346 2.7192383,291.88319 2.7675504,291.96179 Q 2.7590938,291.97138 2.7476792,291.98288 2.7361065,291.99412 2.7224922,292.00598 2.7088778,292.01784 2.6931521,292.02967 2.6774264,292.04149 2.6609104,292.05208 Z"
       style="font-variant-ligatures:normal;font-variant-caps:normal;font-variant-numeric:normal;font-feature-settings:normal"
       id="path4501" />
    <path
       inkscape:connector-curvature="0"
       d="M 2.8139548,291.92423 2.8100141,291.90922 2.8567233,291.88879 2.7688392,291.554 2.7181894,291.55942 2.7142487,291.54441 2.8663468,291.50449 2.8702875,291.5195 2.8235039,291.53965 2.8626874,291.68892 3.0414098,291.642 3.0022263,291.49273 2.9515764,291.49816 2.9476358,291.48315 3.0994506,291.44329 3.1033913,291.45831 3.0566077,291.47846 3.1444918,291.81324 3.195216,291.8081 3.1991567,291.82311 3.0473418,291.86297 3.0434012,291.84796 3.0901104,291.82752 3.0481015,291.66749 2.8693791,291.71441 2.911388,291.87444 2.9621122,291.86929 2.9660529,291.88431 Z"
       style="font-variant-ligatures:normal;font-variant-caps:normal;font-variant-numeric:normal;font-feature-settings:normal"
       id="path4503" />
    <path
       inkscape:connector-curvature="0"
       d="M 3.3431876,291.87505 3.3875431,291.90019 3.382077,291.91472 3.2351752,291.85944 3.2406413,291.84491 3.2905661,291.85525 3.4124704,291.5313 3.3680117,291.50644 3.3734778,291.49191 3.5203796,291.54719 3.5149135,291.56172 3.4650919,291.5511 Z"
       style="font-variant-ligatures:normal;font-variant-caps:normal;font-variant-numeric:normal;font-feature-settings:normal"
       id="path4505" />
    <path
       inkscape:connector-curvature="0"
       d="M 3.5314099,291.96819 3.5238465,291.98174 3.4110797,291.91881 3.4186431,291.90526 3.4613637,291.92004 3.7597445,291.66 3.8083288,291.68712 3.748267,292.08016 3.7878841,292.11132 3.7803207,292.12488 3.6353348,292.04396 3.6428982,292.03041 3.6927786,292.04919 3.7139969,291.93125 3.5789836,291.85591 3.4892357,291.9356 Z M 3.751213,291.70353 3.5994984,291.83717 3.7189136,291.90382 Z"
       style="font-variant-ligatures:normal;font-variant-caps:normal;font-variant-numeric:normal;font-feature-settings:normal"
       id="path4507" />
    <path
       inkscape:connector-curvature="0"
       d="M 4.2784211,292.0498 4.2418015,292.01113 4.2514291,291.99896 4.3563934,292.08198 4.3467658,292.09415 4.3025376,292.06888 4.0732917,292.35873 4.0510126,292.34111 4.0801396,291.91389 3.8755984,292.17251 3.9120364,292.21141 3.9024088,292.22359 3.7974445,292.14057 3.8070721,292.1284 3.8514819,292.15344 4.0661957,291.88196 4.0314135,291.84474 4.0410411,291.83257 4.1342917,291.90632 4.1123903,292.25973 Z"
       style="font-variant-ligatures:normal;font-variant-caps:normal;font-variant-numeric:normal;font-feature-settings:normal"
       id="path4509" />
    <path
       inkscape:connector-curvature="0"
       d="M 4.2865767,292.56449 4.2979051,292.55388 4.3463107,292.59401 4.5974599,292.35882 4.5872516,292.34791 Q 4.5610304,292.31991 4.5419336,292.30209 4.5228367,292.28427 4.5137208,292.27796 L 4.4636439,292.31403 4.4502331,292.2997 4.5175624,292.23665 4.7537534,292.48887 4.686424,292.55192 4.672813,292.53739 4.7120811,292.48978 Q 4.7093332,292.48513 4.7027686,292.47684 4.6964042,292.46876 4.687424,292.45831 4.6786577,292.44767 4.6676624,292.4355 4.6570809,292.42334 4.6454716,292.41094 L 4.6356636,292.40047 4.3849419,292.63526 4.4218053,292.68619 4.4104769,292.6968 Z"
       style="font-variant-ligatures:normal;font-variant-caps:normal;font-variant-numeric:normal;font-feature-settings:normal"
       id="path4511" />
    <path
       inkscape:connector-curvature="0"
       d="M 4.6866792,292.7561 4.5697806,292.8481 4.6003313,292.8997 4.5881352,292.9093 4.4876232,292.78158 4.4998193,292.77198 4.5348278,292.80368 4.8068241,292.58962 4.7816574,292.54533 4.7938535,292.53573 4.898712,292.66897 Q 4.9242475,292.70142 4.9355183,292.72757 4.9469701,292.75396 4.9464776,292.77559 4.9462151,292.79704 4.935374,292.81451 4.9245328,292.83199 4.9054332,292.84702 4.8877144,292.86097 4.869512,292.86672 4.8517208,292.87252 4.8342536,292.87211 4.8167864,292.8717 4.8005977,292.86581 4.7846391,292.85973 4.7711777,292.8502 L 4.7135761,293.03081 4.7336229,293.06906 4.7214268,293.07866 4.6632928,293.00479 4.7303249,292.81155 Z M 4.8661722,292.80376 Q 4.8845814,292.78928 4.8935667,292.77512 4.902552,292.76097 4.9027206,292.74556 4.9030703,292.73038 4.8947013,292.71312 4.8865135,292.69608 4.8702142,292.67537 L 4.8392457,292.63602 4.7073896,292.7398 4.7394447,292.78053 Q 4.7561062,292.8017 4.7711975,292.8133 4.7865189,292.82472 4.801636,292.82735 4.8169831,292.82981 4.8327182,292.82376 4.8484533,292.81771 4.8661722,292.80376 Z"
       style="font-variant-ligatures:normal;font-variant-caps:normal;font-variant-numeric:normal;font-feature-settings:normal"
       id="path4513" />
    <path
       inkscape:connector-curvature="0"
       d="M 4.8103286,293.18439 4.7973689,293.19293 4.7263152,293.08509 4.7392749,293.07655 4.7703672,293.10937 5.1550327,293.01617 5.1856454,293.06263 4.9511433,293.38372 4.9719315,293.42964 4.9589718,293.43818 4.867617,293.29954 4.8805767,293.291 4.9161804,293.33066 4.9893821,293.23579 4.904311,293.10668 4.7879292,293.13602 Z M 5.127394,293.05087 4.9311517,293.09951 5.0063945,293.21371 Z"
       style="font-variant-ligatures:normal;font-variant-caps:normal;font-variant-numeric:normal;font-feature-settings:normal"
       id="path4515" />
    <path
       inkscape:connector-curvature="0"
       d="M 5.0427019,293.54381 5.0608899,293.59144 5.0474249,293.59916 4.9693698,293.46298 4.9828348,293.45527 5.0147419,293.49503 5.3150363,293.3229 5.2965942,293.27542 5.3100592,293.2677 5.3881143,293.40387 5.3746493,293.41159 5.3429963,293.37168 Z"
       style="font-variant-ligatures:normal;font-variant-caps:normal;font-variant-numeric:normal;font-feature-settings:normal"
       id="path4517" />
    <path
       inkscape:connector-curvature="0"
       d="M 5.4803524,293.61362 5.4464993,293.56276 5.1382864,293.71638 5.1727708,293.78557 Q 5.1890987,293.81833 5.2012524,293.83812 5.2134062,293.85791 5.2188974,293.86499 L 5.300118,293.84479 5.3086085,293.86183 5.2053542,293.9074 5.0680698,293.63195 5.0819603,293.62503 5.1115037,293.66658 5.4212891,293.51218 5.4056363,293.46371 5.4195268,293.45678 5.494243,293.6067 Z"
       style="font-variant-ligatures:normal;font-variant-caps:normal;font-variant-numeric:normal;font-feature-settings:normal"
       id="path4519" />
  </g>
</svg>
