<?xml version="1.0" encoding="UTF-8" standalone="no"?>
<!-- Created with Inkscape (http://www.inkscape.org/) -->
<svg id="svg2" xmlns:rdf="http://www.w3.org/1999/02/22-rdf-syntax-ns#" xmlns="http://www.w3.org/2000/svg" height="24" width="30" version="1.1" xmlns:cc="http://creativecommons.org/ns#" xmlns:dc="http://purl.org/dc/elements/1.1/">
 <metadata id="metadata32">
  <rdf:RDF>
   <cc:Work rdf:about="">
    <dc:format>image/svg+xml</dc:format>
    <dc:type rdf:resource="http://purl.org/dc/dcmitype/StillImage"/>
    <dc:title/>
   </cc:Work>
  </rdf:RDF>
 </metadata>
 <g id="g3895" transform="matrix(.50007 0 0 .50008 -.0020164 -.002033)">
  <path id="path3125" d="m24.156 0.94141c-12.805 0-23.215 10.332-23.215 23.059 0.00041 12.727 10.41 23.059 23.215 23.059h11.688c12.805 0 23.215-10.332 23.215-23.059s-10.41-23.059-23.215-23.059z" transform="matrix(.99785 0 0 .99729 .064516 .065041)"/>
  <path id="path3657" fill="#fff" d="m24.157 2c-12.237 0-22.157 9.85-22.157 22s9.92 22 22.157 22h11.686c12.237 0 22.157-9.85 22.157-22s-9.92-22-22.157-22z"/>
  <path id="path3708" d="m24.108 7.5043c-9.238 0-16.604 7.3177-16.604 16.496 0.0003 9.178 7.366 16.496 16.604 16.496h11.784c9.238 0 16.604-7.318 16.604-16.496s-7.366-16.496-16.604-16.496z" stroke="#000" stroke-width="1.0085" fill="none"/>
 </g>
 <path id="path3998" d="m10.88 13.505c0 0.342-0.06 0.656-0.179 0.942-0.12 0.287-0.285 0.536-0.494 0.747-0.21 0.212-0.4608 0.378-0.7527 0.496-0.292 0.119-0.6101 0.179-0.9543 0.179-0.5688 0-1.0291-0.11-1.3809-0.329s-0.6401-0.563-0.8649-1.031c-0.1572-0.335-0.2787-0.719-0.3648-1.154-0.086-0.435-0.129-0.883-0.129-1.344 0-0.297 0.0206-0.592 0.0617-0.886s0.0973-0.572 0.1684-0.836c0.0712-0.264 0.1591-0.5093 0.2639-0.7361 0.1047-0.2267 0.2207-0.4218 0.3479-0.5854 0.2246-0.2751 0.496-0.4833 0.8142-0.6245s0.6906-0.2118 1.1171-0.2118c0.5765 0 1.0482 0.1282 1.415 0.3847 0.3664 0.2564 0.6774 0.6783 0.9314 1.2655l-1.1338 0.4456c-0.1572-0.3266-0.3274-0.5571-0.5107-0.6909s-0.4173-0.2007-0.7019-0.2007c-0.3068 0-0.5631 0.0706-0.769 0.2118-0.2058 0.1412-0.3723 0.3791-0.4996 0.7138-0.0973 0.223-0.1703 0.492-0.2189 0.808-0.0487 0.316-0.073 0.63-0.073 0.942 0 0.402 0.0318 0.784 0.0954 1.149 0.0636 0.364 0.1553 0.665 0.275 0.903 0.2321 0.401 0.5765 0.602 1.0331 0.602 0.3817 0 0.6961-0.108 0.943-0.324 0.2469-0.215 0.3704-0.494 0.3704-0.836v-0.312h-1.3696v-1.182h2.5596z"/>
 <path id="path4000" d="m17.481 14.219c-0.449 1.1-1.205 1.65-2.268 1.65-0.561 0-1.025-0.108-1.392-0.323-0.367-0.216-0.67-0.554-0.91-1.015-0.172-0.335-0.306-0.725-0.404-1.171-0.097-0.446-0.146-0.903-0.146-1.371 0-0.595 0.075-1.163 0.225-1.706 0.149-0.5426 0.355-0.9811 0.617-1.3155 0.225-0.2751 0.496-0.4833 0.814-0.6245 0.319-0.1412 0.691-0.2118 1.117-0.2118 0.57 0 1.039 0.1227 1.41 0.368 0.37 0.2453 0.683 0.6318 0.937 1.1594l-1.111 0.4684c-0.105-0.1559-0.201-0.286-0.287-0.3902-0.086-0.1041-0.176-0.1858-0.269-0.2453-0.094-0.0594-0.195-0.1003-0.303-0.1226-0.109-0.0224-0.234-0.0335-0.377-0.0336-0.306 0.0001-0.563 0.0707-0.768 0.2119-0.206 0.1412-0.373 0.3791-0.5 0.7138-0.097 0.223-0.17 0.487-0.219 0.791-0.049 0.305-0.073 0.617-0.073 0.937 0 0.409 0.041 0.801 0.124 1.176 0.082 0.376 0.198 0.682 0.348 0.92 0.134 0.193 0.292 0.338 0.471 0.435 0.18 0.096 0.401 0.145 0.662 0.145 0.255 0 0.476-0.069 0.663-0.207 0.187-0.137 0.356-0.358 0.505-0.663z"/>
 <path id="path4002" d="m24.24 10.361c0 0.201-0.03 0.396-0.09 0.586-0.06 0.189-0.143 0.367-0.247 0.535-0.105 0.167-0.227 0.314-0.365 0.44-0.139 0.126-0.29 0.227-0.455 0.301-0.172 0.082-0.372 0.145-0.601 0.19-0.228 0.044-0.488 0.067-0.78 0.067h-1.392v3.255h-1.191v-7.4701h2.583c0.307 0 0.567 0.0168 0.78 0.0502 0.213 0.0335 0.414 0.0949 0.601 0.1843 0.165 0.0816 0.316 0.1875 0.455 0.3176 0.138 0.1301 0.26 0.2787 0.365 0.4459 0.104 0.1672 0.187 0.3456 0.247 0.5352s0.09 0.3769 0.09 0.5629zm-1.213 0c0-0.156-0.043-0.304-0.129-0.4457-0.086-0.1412-0.193-0.2527-0.32-0.3346-0.105-0.0595-0.204-0.0966-0.298-0.1115-0.093-0.0148-0.234-0.0222-0.421-0.0222h-1.549v1.828h1.549c0.187 0 0.328-0.007 0.421-0.022 0.094-0.015 0.193-0.048 0.298-0.1 0.127-0.067 0.234-0.177 0.32-0.329 0.086-0.153 0.129-0.307 0.129-0.463z"/>
 <path id="path3913" d="m5.0955 5.6903c0.065 0.0513 0.1156 0.1097 0.152 0.175 0.0364 0.0654 0.0589 0.1336 0.0677 0.2046 0.0088 0.0711 0.0026 0.1428-0.0186 0.2153s-0.0577 0.141-0.1093 0.2055c-0.0854 0.1065-0.1752 0.1762-0.2696 0.2092-0.0945 0.033-0.203 0.0354-0.3256 0.0073-0.0871-0.0208-0.1784-0.0557-0.2739-0.1049-0.0955-0.0491-0.187-0.1082-0.2745-0.1774-0.0565-0.0446-0.1095-0.0927-0.1591-0.1445-0.0496-0.0517-0.0941-0.1041-0.1335-0.157s-0.0728-0.1061-0.1002-0.1598c-0.0273-0.0536-0.047-0.1046-0.0589-0.1529-0.0186-0.0834-0.0174-0.1654 0.0035-0.2462s0.0634-0.1611 0.1274-0.2409c0.0865-0.108 0.1816-0.1771 0.2853-0.2073s0.2304-0.0251 0.3801 0.0154l-0.0854 0.2793c-0.0857-0.0197-0.155-0.0224-0.2079-0.0081s-0.1008 0.048-0.1435 0.1013c-0.046 0.0575-0.071 0.1161-0.0751 0.1758-0.004 0.0597 0.0161 0.1266 0.0606 0.2006 0.0277 0.0517 0.068 0.1058 0.1206 0.1622 0.0527 0.0565 0.1087 0.1082 0.168 0.155 0.0762 0.0603 0.1537 0.1117 0.2324 0.1545 0.0787 0.0427 0.1496 0.0707 0.2128 0.084 0.111 0.0167 0.2008-0.0177 0.2693-0.1032 0.0573-0.0715 0.084-0.1465 0.0801-0.225-0.0039-0.0786-0.0383-0.1436-0.1033-0.1949l-0.0592-0.0468-0.2055 0.2565-0.2245-0.1774 0.3841-0.4793 0.2837 0.2241z"/>
 <path id="path3915" d="m6.787 4.9105l-0.7234-0.4286-0.2675 0.2141 0.4959 0.6108-0.2233 0.1787-1.1378-1.4014 0.4655-0.3726c0.0548-0.0439 0.1044-0.0784 0.1488-0.1036s0.0909-0.0435 0.1397-0.0548c0.0433-0.0094 0.0879-0.0123 0.1337-0.0087s0.0909 0.0135 0.1353 0.0297 0.0863 0.0378 0.1257 0.065c0.0395 0.0271 0.0733 0.0581 0.1016 0.0929 0.0306 0.0377 0.055 0.0785 0.0734 0.1225 0.0183 0.044 0.0307 0.0893 0.0372 0.1358s0.0063 0.0933-0.0007 0.1403c-0.007 0.0471-0.021 0.0905-0.042 0.1303l0.7801 0.4557zm-0.8291-0.9997c-0.0238-0.0293-0.0541-0.051-0.0911-0.0651-0.0369-0.0141-0.0757-0.0176-0.1162-0.0105-0.0262 0.0049-0.0484 0.0117-0.0667 0.0206s-0.0457 0.028-0.0822 0.0572l-0.2675 0.2141 0.2785 0.343 0.2675-0.2141c0.0351-0.0281 0.0596-0.05 0.0735-0.0657s0.026-0.0358 0.0363-0.0602c0.0157-0.0378 0.0202-0.0765 0.0135-0.1161-0.0066-0.0395-0.0218-0.0739-0.0456-0.1032z"/>
 <path id="path3917" d="m8.572 3.8924l-0.3837-0.376-0.5081 0.2465 0.0628 0.5317-0.2747 0.1332-0.2342-1.8898 0.2552-0.1238 1.3574 1.3449zm-0.9857-0.9691l0.0555 0.5353 0.3258-0.1581z"/>
 <path id="path3919" d="m10.431 3.3421l-0.9481-1.0369 0.2723 1.1894-0.2797 0.0631-0.4019-1.7552 0.2797-0.0632 0.9007 0.9759-0.257-1.1213 0.28-0.0631 0.402 1.7553z"/>
 <path id="path3921" d="m12.683 2.2835c0.004 0.1809-0.02 0.3404-0.071 0.4787-0.052 0.1382-0.129 0.248-0.229 0.3292-0.034 0.033-0.074 0.0581-0.119 0.0753-0.046 0.0171-0.092 0.0281-0.139 0.0328l-0.103 0.0024-0.551 0.0129-0.043-1.7996 0.584-0.0137c0.045-0.001 0.085-0.0006 0.118 0.0013 0.033 0.002 0.064 0.0062 0.091 0.0127s0.052 0.0158 0.074 0.0279c0.022 0.012 0.045 0.0266 0.071 0.0439 0.098 0.0802 0.174 0.1882 0.228 0.3239 0.055 0.1358 0.085 0.2932 0.089 0.4723zm-0.292 0.0068c-0.003-0.1217-0.019-0.2298-0.047-0.3241-0.029-0.0943-0.066-0.1642-0.112-0.2097-0.024-0.0209-0.052-0.0382-0.083-0.0518s-0.065-0.0199-0.103-0.0191l-0.324 0.0076 0.029 1.2248 0.286-0.0067c0.047-0.0011 0.086-0.0074 0.118-0.0189 0.031-0.0114 0.059-0.03 0.083-0.0557 0.053-0.055 0.093-0.1298 0.118-0.2245 0.026-0.0946 0.037-0.2019 0.035-0.3219z"/>
 <path id="path3923" d="m15.38 2.8353c-0.109 0.265-0.291 0.3976-0.547 0.3976-0.135 0-0.247-0.026-0.335-0.0779-0.089-0.052-0.162-0.1335-0.22-0.2445-0.041-0.0806-0.073-0.1747-0.097-0.2822-0.023-0.1074-0.035-0.2176-0.035-0.3304 0-0.1432 0.018-0.2803 0.054-0.411 0.036-0.1308 0.086-0.2365 0.149-0.317 0.054-0.0663 0.119-0.1165 0.196-0.1505 0.077-0.0341 0.166-0.0511 0.269-0.0511 0.137 0 0.251 0.0296 0.34 0.0887s0.164 0.1522 0.226 0.2794l-0.268 0.1129c-0.025-0.0376-0.048-0.069-0.069-0.0941s-0.043-0.0448-0.065-0.0591c-0.023-0.0143-0.047-0.0242-0.073-0.0295-0.026-0.0054-0.057-0.0081-0.091-0.0081-0.074 0-0.136 0.017-0.185 0.051-0.05 0.0341-0.09 0.0914-0.12 0.172-0.024 0.0537-0.042 0.1173-0.053 0.1907-0.012 0.0735-0.018 0.1487-0.018 0.2257 0 0.0985 0.01 0.193 0.03 0.2835 0.02 0.0904 0.048 0.1643 0.084 0.2216 0.032 0.0466 0.07 0.0815 0.113 0.1048 0.044 0.0233 0.097 0.0349 0.16 0.0349 0.061 0 0.115-0.0166 0.16-0.0497s0.085-0.0864 0.121-0.1599l0.274 0.1022z"/>
 <path id="path3925" d="m16.011 3.2006v-1.8001h1.069v0.2849h-0.782v0.4406h0.528v0.2902h-0.528v0.4943h0.839v0.2901z"/>
 <path id="path3927" d="m18.691 3.2281l-0.628-1.2535-0.063 1.2182-0.287-0.0146 0.093-1.7978 0.287 0.0147 0.599 1.182 0.06-1.1484 0.286 0.0146-0.093 1.7977z"/>
 <path id="path3929" d="m20.628 1.9998l-0.378 1.5013-0.278-0.0691 0.378-1.5012-0.401-0.0998 0.061-0.2451 1.087 0.2699-0.062 0.2451z"/>
 <path id="path3931" d="m22.083 4.2058l0.074-0.8332-0.311-0.1461-0.338 0.7089-0.259-0.122 0.776-1.6266 0.541 0.2543c0.063 0.0299 0.116 0.0592 0.158 0.088s0.079 0.0625 0.111 0.1011c0.027 0.0347 0.049 0.0733 0.066 0.1158 0.016 0.0425 0.027 0.0872 0.032 0.1339 0.004 0.0468 0.003 0.0937-0.005 0.1407-0.007 0.0471-0.021 0.0908-0.04 0.1313-0.021 0.0437-0.047 0.0833-0.079 0.1188s-0.068 0.0663-0.107 0.0923c-0.039 0.0261-0.082 0.0462-0.128 0.0604-0.045 0.0142-0.091 0.0205-0.136 0.0191l-0.074 0.8956zm0.546-1.1759c0.016-0.034 0.023-0.0706 0.019-0.1098-0.003-0.0391-0.017-0.0753-0.041-0.1085-0.015-0.0213-0.031-0.0382-0.047-0.0507s-0.045-0.0287-0.088-0.0486l-0.31-0.1462-0.19 0.3982 0.31 0.1461c0.041 0.0192 0.071 0.0316 0.092 0.0372 0.02 0.0056 0.043 0.0077 0.07 0.0063 0.041-0.0025 0.078-0.0152 0.111-0.0384 0.033-0.0231 0.058-0.0517 0.074-0.0856z"/>
 <path id="path3933" d="m23.782 5.3597l0.174-0.5066-0.444-0.3472-0.455 0.2872-0.241-0.1877 1.613-1.0309 0.223 0.1744-0.63 1.7985zm0.45-1.3028l-0.461 0.2824 0.285 0.2226z"/>
 <path id="path3935" d="m24.465 6.02l1.399-1.1445 0.183 0.2199-1.193 0.9754 0.533 0.6428-0.206 0.1691z"/>
 <path id="path3976" d="m9.8852 21.098c-0.0147 0.047-0.0358 0.089-0.0634 0.128-0.0276 0.04-0.0596 0.075-0.0958 0.106-0.0363 0.031-0.075 0.056-0.116 0.075-0.0411 0.019-0.0832 0.031-0.1265 0.036-0.0455 0.006-0.0962 0.007-0.1519 0-0.0557-0.006-0.1171-0.019-0.1842-0.04l-0.32-0.1-0.2375 0.748-0.2736-0.086 0.5451-1.717 0.5935 0.186c0.0706 0.022 0.1292 0.045 0.1757 0.068 0.0466 0.023 0.0881 0.051 0.1247 0.085 0.0318 0.031 0.0589 0.066 0.0813 0.106 0.0223 0.04 0.0394 0.083 0.0513 0.129s0.0178 0.093 0.0177 0.141c0 0.047-0.0069 0.093-0.0204 0.135zm-0.2787-0.087c0.0114-0.036 0.0123-0.073 0.0028-0.112-0.0094-0.038-0.0258-0.072-0.0491-0.1-0.0197-0.021-0.0398-0.036-0.0602-0.047-0.0205-0.01-0.0522-0.022-0.0952-0.035l-0.3561-0.111-0.1334 0.42 0.3561 0.111c0.043 0.014 0.0758 0.022 0.0984 0.025 0.0226 0.004 0.0478 0.003 0.0757-0.001 0.0341-0.007 0.0666-0.024 0.0976-0.053 0.0309-0.029 0.052-0.061 0.0634-0.097z"/>
 <path id="path3978" d="m11.277 22.599l-0.118-0.522-0.562-0.065-0.236 0.482-0.304-0.035 0.83-1.717 0.282 0.033 0.412 1.859zm-0.303-1.344l-0.244 0.481 0.36 0.041z"/>
 <path id="path3980" d="m13.219 22.618l-0.293-0.784h-0.343v0.784h-0.287v-1.8h0.598c0.07 0 0.131 0.004 0.181 0.012 0.051 0.008 0.099 0.023 0.144 0.045 0.039 0.019 0.076 0.045 0.109 0.076 0.034 0.031 0.062 0.067 0.087 0.108 0.024 0.04 0.043 0.083 0.057 0.129 0.013 0.045 0.02 0.09 0.02 0.135 0 0.049-0.007 0.096-0.02 0.141-0.014 0.046-0.033 0.089-0.057 0.129-0.025 0.041-0.054 0.077-0.089 0.109-0.036 0.032-0.074 0.057-0.115 0.075l0.319 0.841zm-0.014-1.295c0-0.037-0.01-0.073-0.03-0.107-0.019-0.034-0.047-0.061-0.084-0.081-0.023-0.012-0.045-0.021-0.064-0.025-0.02-0.005-0.054-0.007-0.101-0.007h-0.343v0.441h0.343c0.046 0 0.078-0.002 0.099-0.006 0.021-0.003 0.043-0.011 0.066-0.024 0.037-0.02 0.065-0.047 0.084-0.082 0.02-0.035 0.03-0.071 0.03-0.109z"/>
 <path id="path3982" d="m15.079 22.618l-0.46-0.851-0.189 0.233v0.618h-0.287v-1.8h0.287v0.715l0.571-0.715h0.37l-0.56 0.701 0.598 1.099z"/>
 <path id="path3984" d="m17.209 22.618h-0.254l-0.287-1.155-0.278 1.155h-0.255l-0.268-1.8h0.293l0.14 0.949 0.23-0.949h0.279l0.235 0.949 0.141-0.949h0.292z"/>
 <path id="path3986" d="m19.334 22.537l-0.222-0.487-0.563 0.049-0.134 0.518-0.304 0.027 0.464-1.848 0.283-0.024 0.781 1.739zm-0.569-1.256l-0.142 0.52 0.361-0.032z"/>
 <path id="path3988" d="m20.937 21.377l0.226 0.752-0.274 0.082-0.227-0.752-0.903-0.792 0.33-0.098 0.615 0.544 0.219-0.792 0.324-0.096z"/>
</svg>
