<?xml version="1.0" encoding="UTF-8" standalone="no"?>
<!-- Created with Inkscape (http://www.inkscape.org/) -->
<svg id="svg2" xmlns:rdf="http://www.w3.org/1999/02/22-rdf-syntax-ns#" xmlns="http://www.w3.org/2000/svg" height="36" width="24" version="1.0" xmlns:cc="http://creativecommons.org/ns#" xmlns:dc="http://purl.org/dc/elements/1.1/">
 <metadata id="metadata3254">
  <rdf:RDF>
   <cc:Work rdf:about="">
    <dc:format>image/svg+xml</dc:format>
    <dc:type rdf:resource="http://purl.org/dc/dcmitype/StillImage"/>
    <dc:title/>
   </cc:Work>
  </rdf:RDF>
 </metadata>
 <path id="rect1571" fill="#006b54" d="m12.005 0.49999c-5.005 0.03685-5.005 4.5-11.005 4.5v24.482c0 1.152 0.7629 2.005 1.8147 2.411l9.1903 3.607 9.18-3.607c1.052-0.406 1.815-1.259 1.815-2.411v-24.482c-6 0-6-4.5-10.995-4.5z"/>
 <path id="text1352" fill="#fff" d="m3.4258 11.149v-3.8879h1.6625c0.4181 0 0.7219 0.035 0.9113 0.1047 0.1895 0.0699 0.3412 0.1941 0.455 0.3726 0.1139 0.1786 0.1708 0.3828 0.1708 0.6127 0 0.2917-0.0863 0.5326-0.2588 0.7227-0.1726 0.1901-0.4306 0.3098-0.7739 0.3593 0.1708 0.099 0.3117 0.2078 0.4229 0.3262 0.1112 0.1185 0.2611 0.3287 0.4497 0.6317l0.4777 0.758h-0.9447l-0.5711-0.846c-0.2028-0.302-0.3416-0.4928-0.4163-0.5715-0.0747-0.0786-0.1539-0.1326-0.2375-0.1618s-0.2161-0.0437-0.3976-0.0437h-0.1601v1.623h-0.7899zm0.7899-2.2436h0.5844c0.3789 0 0.6156-0.0159 0.7098-0.0477 0.0943-0.0319 0.1682-0.0866 0.2215-0.1645 0.0534-0.0777 0.0801-0.175 0.0801-0.2917 0-0.1309-0.0351-0.2365-0.1054-0.3169s-0.1695-0.1313-0.2976-0.1525c-0.064-0.0093-0.2561-0.0132-0.5764-0.0132h-0.6164v0.9866zm2.9781 0.7956c0-0.2475 0.0614-0.4871 0.1841-0.7187 0.1228-0.2316 0.2967-0.4084 0.5218-0.5304 0.225-0.1221 0.4763-0.183 0.7538-0.183 0.4288 0 0.7801 0.1383 1.0541 0.415s0.4114 0.6264 0.4114 1.0489c0 0.4262-0.1387 0.7792-0.4154 1.0592-0.2766 0.281-0.6249 0.421-1.0447 0.421-0.2598 0-0.5075-0.059-0.7432-0.175-0.2358-0.117-0.415-0.288-0.5378-0.514-0.1227-0.225-0.1841-0.499-0.1841-0.823zm0.7686 0.0399c0 0.2791 0.0667 0.4931 0.2001 0.6421 0.1334 0.148 0.298 0.223 0.4937 0.223s0.3598-0.075 0.4924-0.223c0.1325-0.149 0.1988-0.364 0.1988-0.6474 0-0.2758-0.0663-0.488-0.1988-0.6365-0.1326-0.1485-0.2967-0.2228-0.4924-0.2228s-0.3603 0.0742-0.4937 0.2228c-0.1334 0.1485-0.2001 0.3625-0.2001 0.6418zm2.7136 1.4081v-3.8878h0.75v1.4003c0.231-0.2617 0.505-0.3925 0.822-0.3925 0.345 0 0.631 0.1243 0.857 0.3726 0.226 0.2484 0.339 0.6052 0.339 1.0701 0 0.4813-0.116 0.8513-0.346 1.1113s-0.51 0.39-0.839 0.39c-0.162 0-0.322-0.04-0.479-0.121-0.158-0.08-0.293-0.199-0.407-0.357v0.414h-0.697zm0.745-1.4691c0 0.2917 0.046 0.5071 0.139 0.6471 0.129 0.198 0.302 0.297 0.517 0.297 0.166 0 0.307-0.07 0.423-0.211 0.117-0.14 0.175-0.362 0.175-0.6641 0-0.3218-0.059-0.5539-0.176-0.6962s-0.268-0.2135-0.451-0.2135c-0.18 0-0.329 0.0694-0.448 0.2082-0.12 0.1388-0.179 0.3496-0.179 0.6325zm4.27 0.5731l0.747 0.124c-0.096 0.273-0.248 0.48-0.455 0.622-0.207 0.143-0.467 0.214-0.778 0.214-0.493 0-0.858-0.16-1.094-0.48-0.187-0.257-0.28-0.58-0.28-0.9709 0-0.4667 0.122-0.8323 0.368-1.0966 0.245-0.2643 0.556-0.3965 0.931-0.3965 0.422 0 0.754 0.1384 0.998 0.415 0.244 0.2768 0.36 0.7006 0.35 1.2717h-1.879c0.005 0.2213 0.066 0.3933 0.182 0.5163 0.115 0.123 0.259 0.184 0.432 0.184 0.117 0 0.216-0.032 0.296-0.096 0.08-0.063 0.141-0.166 0.182-0.307zm0.042-0.7534c-0.005-0.2157-0.061-0.3797-0.168-0.492-0.107-0.1122-0.236-0.1684-0.389-0.1684-0.164 0-0.299 0.0593-0.406 0.1777-0.107 0.1185-0.159 0.2793-0.158 0.4827zm2.076 1.6494h-0.749v-2.8163h0.696v0.4004c0.119-0.1892 0.226-0.3138 0.322-0.3739 0.095-0.0601 0.203-0.0902 0.324-0.0902 0.171 0 0.335 0.047 0.494 0.1406l-0.233 0.6498c-0.126-0.0813-0.243-0.1221-0.352-0.1221-0.105 0-0.194 0.0288-0.267 0.0862-0.073 0.0575-0.13 0.1614-0.172 0.3117-0.042 0.1502-0.063 0.465-0.063 0.9438v0.87zm2.706-2.8163v0.594h-0.512v1.1353c0 0.23 0.005 0.364 0.015 0.402 0.009 0.038 0.032 0.069 0.066 0.094 0.035 0.024 0.077 0.037 0.127 0.037 0.07 0 0.17-0.024 0.302-0.072l0.064 0.579c-0.175 0.074-0.372 0.111-0.593 0.111-0.135 0-0.257-0.023-0.365-0.068-0.109-0.045-0.188-0.103-0.239-0.175s-0.086-0.168-0.106-0.29c-0.016-0.087-0.024-0.262-0.024-0.525v-1.2283h-0.344v-0.594h0.344v-0.5596l0.753-0.435v0.9946h0.512zm-16.804 7.7053v-3.888h1.1822l0.7098 2.652 0.7019-2.652h1.1848v3.888h-0.7338v-3.061l-0.7766 3.061h-0.7605l-0.7739-3.061v3.061zm4.3898-1.449c0-0.247 0.0614-0.487 0.1842-0.718 0.1227-0.232 0.2966-0.409 0.5217-0.531 0.225-0.122 0.4763-0.183 0.7538-0.183 0.4288 0 0.7802 0.139 1.0542 0.415 0.274 0.277 0.411 0.627 0.411 1.049 0 0.426-0.138 0.78-0.415 1.06s-0.625 0.42-1.0448 0.42c-0.2598 0-0.5075-0.058-0.7432-0.175s-0.415-0.288-0.5377-0.513c-0.1228-0.225-0.1842-0.5-0.1842-0.824zm0.7686 0.04c0 0.28 0.0667 0.494 0.2001 0.642 0.1334 0.149 0.298 0.223 0.4937 0.223s0.3598-0.074 0.4925-0.223c0.132-0.148 0.199-0.364 0.199-0.647 0-0.276-0.067-0.488-0.199-0.636-0.1327-0.149-0.2968-0.223-0.4925-0.223s-0.3603 0.074-0.4937 0.223c-0.1334 0.148-0.2001 0.362-0.2001 0.641zm2.4813 0.605l0.753-0.114c0.032 0.145 0.097 0.255 0.195 0.33s0.235 0.113 0.411 0.113c0.194 0 0.34-0.036 0.437-0.106 0.066-0.05 0.099-0.116 0.099-0.199 0-0.057-0.018-0.104-0.053-0.141-0.038-0.035-0.121-0.068-0.251-0.098-0.605-0.132-0.988-0.254-1.15-0.363-0.224-0.152-0.336-0.364-0.336-0.634 0-0.244 0.096-0.449 0.29-0.615 0.194-0.167 0.495-0.25 0.902-0.25 0.388 0 0.676 0.063 0.865 0.189 0.189 0.125 0.318 0.311 0.39 0.557l-0.708 0.13c-0.03-0.11-0.087-0.194-0.172-0.252-0.084-0.059-0.205-0.088-0.361-0.088-0.198 0-0.339 0.027-0.425 0.082-0.057 0.039-0.085 0.089-0.085 0.151 0 0.053 0.025 0.098 0.075 0.136 0.067 0.049 0.301 0.119 0.7 0.209 0.4 0.09 0.679 0.201 0.837 0.332 0.156 0.132 0.235 0.317 0.235 0.554 0 0.258-0.109 0.48-0.326 0.666-0.217 0.185-0.538 0.278-0.963 0.278-0.386 0-0.692-0.078-0.917-0.233-0.225-0.156-0.372-0.367-0.442-0.634zm4.948-0.093l0.747 0.125c-0.096 0.272-0.248 0.479-0.455 0.622-0.207 0.142-0.466 0.213-0.778 0.213-0.492 0-0.857-0.16-1.094-0.48-0.187-0.256-0.28-0.58-0.28-0.97 0-0.467 0.123-0.833 0.368-1.097 0.246-0.264 0.556-0.397 0.932-0.397 0.421 0 0.754 0.139 0.998 0.415 0.243 0.277 0.36 0.701 0.349 1.272h-1.878c0.005 0.221 0.065 0.393 0.181 0.516s0.26 0.184 0.432 0.184c0.118 0 0.216-0.031 0.297-0.095 0.08-0.064 0.14-0.166 0.181-0.308zm0.043-0.753c-0.006-0.216-0.062-0.38-0.168-0.492-0.107-0.112-0.237-0.168-0.39-0.168-0.164 0-0.299 0.059-0.406 0.177-0.106 0.119-0.159 0.28-0.157 0.483h1.121zm1.094 0.846l0.752-0.114c0.032 0.145 0.097 0.255 0.195 0.33s0.235 0.113 0.411 0.113c0.194 0 0.34-0.036 0.438-0.106 0.066-0.05 0.098-0.116 0.098-0.199 0-0.057-0.017-0.104-0.053-0.141-0.037-0.035-0.121-0.068-0.251-0.098-0.605-0.133-0.988-0.254-1.15-0.363-0.224-0.152-0.336-0.364-0.336-0.634 0-0.244 0.097-0.449 0.291-0.615 0.194-0.167 0.494-0.25 0.902-0.25 0.388 0 0.676 0.063 0.864 0.189 0.189 0.125 0.319 0.311 0.39 0.557l-0.707 0.13c-0.03-0.11-0.088-0.194-0.172-0.252-0.085-0.059-0.205-0.088-0.362-0.088-0.197 0-0.339 0.027-0.424 0.082-0.057 0.039-0.086 0.089-0.086 0.151 0 0.053 0.025 0.099 0.075 0.136 0.068 0.049 0.301 0.119 0.701 0.209 0.399 0.09 0.678 0.201 0.836 0.332 0.157 0.132 0.235 0.317 0.235 0.554 0 0.258-0.108 0.48-0.326 0.666-0.217 0.185-0.538 0.278-0.963 0.278-0.386 0-0.692-0.078-0.917-0.233-0.225-0.156-0.372-0.367-0.441-0.634zm-12.094 4.427l0.7686-0.074c0.0462 0.256 0.1401 0.444 0.2815 0.565 0.1414 0.12 0.3322 0.18 0.5724 0.18 0.2544 0 0.4461-0.054 0.5751-0.16 0.129-0.107 0.1935-0.233 0.1935-0.376 0-0.092-0.0272-0.17-0.0814-0.234-0.0543-0.065-0.149-0.121-0.2842-0.169-0.0925-0.032-0.3034-0.088-0.6325-0.17-0.4234-0.104-0.7205-0.232-0.8913-0.384-0.2402-0.214-0.3602-0.475-0.3602-0.783 0-0.198 0.0564-0.383 0.1694-0.555 0.113-0.173 0.2758-0.304 0.4884-0.394s0.4692-0.135 0.7698-0.135c0.4911 0 0.8607 0.107 1.1088 0.321 0.2482 0.214 0.3785 0.499 0.391 0.856l-0.7899 0.035c-0.0338-0.2-0.1063-0.344-0.2175-0.431-0.1112-0.088-0.278-0.131-0.5004-0.131-0.2295 0-0.4091 0.046-0.539 0.14-0.0836 0.06-0.1254 0.141-0.1254 0.242 0 0.091 0.0391 0.17 0.1174 0.236 0.0996 0.083 0.3416 0.169 0.7258 0.259 0.3843 0.091 0.6685 0.184 0.8526 0.28 0.1842 0.097 0.3283 0.228 0.4324 0.395 0.104 0.167 0.1561 0.374 0.1561 0.62 0 0.222-0.0623 0.431-0.1868 0.626-0.1246 0.194-0.3007 0.339-0.5284 0.433-0.2277 0.095-0.5115 0.142-0.8513 0.142-0.4946 0-0.8744-0.114-1.1395-0.341s-0.4234-0.558-0.475-0.993zm5.1452-1.552v0.594h-0.5125v1.136c0 0.229 0.0048 0.363 0.0146 0.401s0.0319 0.07 0.0669 0.095c0.035 0.024 0.077 0.037 0.127 0.037 0.069 0 0.17-0.024 0.301-0.072l0.064 0.578c-0.174 0.074-0.372 0.112-0.5922 0.112-0.1352 0-0.2571-0.023-0.3656-0.068s-0.1881-0.104-0.2388-0.175c-0.0507-0.072-0.0859-0.169-0.1055-0.291-0.016-0.086-0.024-0.261-0.024-0.525v-1.228h-0.3442v-0.594h0.3442v-0.559l0.7526-0.435v0.994h0.5125zm1.086 0.86l-0.681-0.122c0.077-0.273 0.209-0.474 0.395-0.605 0.187-0.131 0.465-0.196 0.833-0.196 0.334 0 0.584 0.039 0.747 0.118 0.164 0.079 0.279 0.178 0.346 0.3 0.067 0.121 0.1 0.343 0.1 0.667l-0.008 0.869c0 0.248 0.012 0.43 0.036 0.548s0.069 0.244 0.135 0.378h-0.742c-0.02-0.05-0.044-0.123-0.072-0.22-0.013-0.044-0.022-0.073-0.027-0.088-0.128 0.124-0.265 0.217-0.411 0.279s-0.302 0.093-0.467 0.093c-0.292 0-0.522-0.079-0.69-0.236-0.168-0.158-0.252-0.357-0.252-0.597 0-0.159 0.038-0.301 0.115-0.426 0.076-0.124 0.183-0.22 0.321-0.286s0.337-0.124 0.597-0.174c0.35-0.065 0.593-0.126 0.728-0.183v-0.074c0-0.143-0.035-0.246-0.107-0.307-0.071-0.061-0.205-0.091-0.402-0.091-0.134 0-0.238 0.026-0.313 0.078-0.074 0.052-0.135 0.144-0.181 0.275zm1.003 0.604c-0.096 0.032-0.248 0.07-0.456 0.114-0.208 0.045-0.344 0.088-0.408 0.131-0.098 0.069-0.147 0.156-0.147 0.262 0 0.104 0.039 0.195 0.117 0.271 0.079 0.076 0.178 0.114 0.299 0.114 0.135 0 0.264-0.044 0.387-0.133 0.091-0.067 0.151-0.149 0.179-0.246 0.02-0.064 0.029-0.185 0.029-0.364v-0.148zm2.778-1.464v0.594h-0.512v1.136c0 0.229 0.005 0.363 0.015 0.401 0.009 0.038 0.032 0.07 0.066 0.095 0.035 0.024 0.077 0.037 0.127 0.037 0.069 0 0.17-0.024 0.302-0.072l0.064 0.578c-0.175 0.074-0.372 0.112-0.593 0.112-0.135 0-0.257-0.023-0.365-0.068-0.109-0.045-0.188-0.104-0.239-0.175-0.051-0.072-0.086-0.169-0.106-0.291-0.016-0.086-0.024-0.261-0.024-0.525v-1.228h-0.344v-0.594h0.344v-0.559l0.753-0.435v0.994h0.512zm2.167 1.921l0.747 0.124c-0.096 0.272-0.247 0.48-0.455 0.622-0.207 0.142-0.466 0.214-0.777 0.214-0.493 0-0.858-0.16-1.095-0.48-0.186-0.257-0.28-0.58-0.28-0.971 0-0.467 0.123-0.832 0.368-1.097 0.246-0.264 0.556-0.396 0.932-0.396 0.421 0 0.754 0.138 0.998 0.415s0.36 0.7 0.349 1.272h-1.878c0.005 0.221 0.066 0.392 0.181 0.515 0.116 0.123 0.26 0.185 0.433 0.185 0.117 0 0.216-0.032 0.296-0.096s0.14-0.166 0.181-0.308zm0.043-0.754c-0.005-0.215-0.061-0.379-0.168-0.492-0.107-0.112-0.237-0.168-0.39-0.168-0.164 0-0.299 0.059-0.405 0.178-0.107 0.118-0.16 0.279-0.158 0.482zm-12.321 6.538v-3.888h1.2675c0.4804 0 0.7935 0.02 0.9394 0.059 0.2241 0.058 0.4118 0.185 0.5631 0.38 0.1512 0.196 0.2268 0.448 0.2268 0.757 0 0.239-0.0436 0.44-0.1308 0.603-0.0872 0.162-0.1979 0.29-0.3322 0.383s-0.2709 0.154-0.4096 0.184c-0.1886 0.037-0.4617 0.056-0.8193 0.056h-0.515v1.466h-0.7899zm0.7899-3.23v1.103h0.4323c0.3113 0 0.5195-0.02 0.6244-0.061 0.105-0.04 0.1873-0.104 0.2469-0.191 0.0596-0.086 0.0894-0.187 0.0894-0.302 0-0.141-0.0418-0.258-0.1255-0.35-0.0836-0.092-0.1894-0.149-0.3175-0.172-0.0943-0.018-0.2838-0.027-0.5684-0.027h-0.3816zm2.8287 3.23v-3.888h0.7498v2.064l0.8775-0.992h0.924l-0.969 1.029 1.038 1.787h-0.808l-0.7129-1.265-0.3496 0.364v0.901zm3.5973 0l-0.897-2.816h0.729l0.531 1.846 0.488-1.846h0.723l0.473 1.846 0.541-1.846h0.74l-0.91 2.816h-0.721l-0.488-1.811-0.481 1.811zm3.365-2.816h0.798l0.678 1.999 0.662-1.999h0.776l-1.001 2.71-0.178 0.491c-0.066 0.164-0.129 0.29-0.189 0.376-0.059 0.087-0.128 0.157-0.205 0.211s-0.173 0.096-0.286 0.126-0.24 0.045-0.383 0.045c-0.144 0-0.285-0.015-0.424-0.045l-0.067-0.583c0.118 0.023 0.224 0.034 0.318 0.034 0.174 0 0.303-0.05 0.387-0.152s0.148-0.231 0.192-0.389l-1.078-2.824z"/>
 <path id="path1361" fill="#fff" d="m15.175 30.523c0 1.742-1.421 3.154-3.174 3.154s-3.1736-1.412-3.1736-3.154 1.4206-3.155 3.1736-3.155 3.174 1.413 3.174 3.155z"/>
 <path id="path2249" d="m12.001 33.486v-0.631" stroke="#006b54" stroke-linecap="square" stroke-width=".13712" fill="none"/>
 <path id="path3360" d="m12.002 27.928l-0.352 0.813-0.615 0.037-0.056 1.09-0.427-0.172-0.146 0.295-0.279 0.027 0.061 0.189-0.285 0.022 0.436 1.488h-0.3755c0.3325 0.573 1.0455 1.138 2.0385 1.138s1.704-0.565 2.037-1.138h-0.376l0.436-1.488-0.284-0.022 0.06-0.189-0.279-0.027-0.146-0.295-0.426 0.172-0.057-1.09-0.614-0.037-0.351-0.813z" stroke="#006b54" stroke-linecap="square" stroke-width=".27424" fill="none"/>
</svg>
